{
  "resourceType" : "MedicationOrder",
  "identifier" : "Medi1", 
  "dateWritten" : "2016-04-27",
  "status" : "active", 
  "patient" : { Reference(Patient) }, // Who prescription is for => String
  "prescriber" : { Reference(Practitioner) }, // Who ordered the medication(s) => String
  "note" : "Dolirhume", 
  "dosageInstruction" : [{
    "text" : "3 takes a day",
    "additionalInstructions" : "with meals"
  }]
}